{
  "type": "minecraft:crafting_shaped",
  "pattern": [
    "INI",
    "B B",
    "ROR"
  ],
  "key": {
    "I": {
      "item": "minecraft:iron_bars"
    },
    "N": {
      "item": "minecraft:experience_bottle"
    },
    "B": {
      "item": "minecraft:gold_block"
    },
    "R": {
      "item": "minecraft:redstone"
    },
    "O": {
      "item": "minecraft:copper_block"
    }
  },
  "result": {
    "id": "autoworkstations:gold_auto_experience_orb_emitter",
    "count": 1
  }
}
