{
  "type": "minecraft:crafting_shaped",
  "pattern": [
    "CHC",
    "I I",
    "ROR"
  ],
  "key": {
    "C": {
      "item": "minecraft:chain"
    },
    "H": {
      "item": "minecraft:iron_block"
    },
    "I": {
      "item": "minecraft:iron_block"
    },
    "R": {
      "item": "minecraft:redstone"
    },
    "O": {
      "item": "minecraft:copper_block"
    }
  },
  "result": {
    "id": "autoworkstations:iron_auto_anvil",
    "count": 1
  }
}
