{
  "type": "minecraft:crafting_shaped",
  "pattern": [
    "GGG",
    "BEB",
    "ROR"
  ],
  "key": {
    "G": {
      "item": "minecraft:glass"
    },
    "E": {
      "item": "minecraft:enchanting_table"
    },
    "B": {
      "item": "minecraft:iron_block"
    },
    "R": {
      "item": "minecraft:redstone"
    },
    "O": {
      "item": "minecraft:copper_block"
    }
  },
  "result": {
    "id": "autoworkstations:iron_auto_enchanting_table",
    "count": 1
  }
}
