{
  "type": "minecraft:crafting_shaped",
  "pattern": [
    "IUI"
  ],
  "key": {
    "I": {
      "item": "minecraft:netherite_block"
    },
    "U": {
      "item": "autoworkstations:gold_auto_crafting_table"
    }
  },
  "result": {
    "id": "autoworkstations:netherite_auto_crafting_table",
    "count": 1
  }
}
