{
  "variants": {
    "works=true": {
      "model": "autoworkstations:block/iron_auto_grindstone_on"
    },
    "works=false": {
      "model": "autoworkstations:block/iron_auto_grindstone"
    }
  }
}
