{
	"credit": "Made with Blockbench",
	"textures": {
		"4": "autoworkstations:block/gold_auto_brewing_stand_side2_lit",
		"particle": "autoworkstations:block/gold_auto_brewing_stand_top"
	},
	"elements": [
		{
			"name": "north-p3",
			"from": [6, 2, 0],
			"to": [10, 5, 1],
			"faces": {
				"north": {"uv": [6, 11, 10, 14], "texture": "#4"}
			}
		},
		{
			"name": "south-p3",
			"from": [6, 2, 15],
			"to": [10, 5, 16],
			"faces": {
				"south": {"uv": [6, 11, 10, 14], "texture": "#4"}
			}
		}
	],
	"display": {
		"thirdperson_righthand": {
			"scale": [0.4, 0.4, 0.4]
		},
		"thirdperson_lefthand": {
			"scale": [0.4, 0.4, 0.4]
		},
		"firstperson_righthand": {
			"scale": [0.4, 0.4, 0.4]
		},
		"firstperson_lefthand": {
			"scale": [0.4, 0.4, 0.4]
		},
		"ground": {
			"scale": [0.4, 0.4, 0.4]
		},
		"fixed": {
			"scale": [0.5, 0.5, 0.5]
		}
	},
	"groups": [
		{
			"name": "north",
			"origin": [0, 0, 0],
			"color": 0,
			"children": [0]
		},
		{
			"name": "south",
			"origin": [0, 0, 0],
			"color": 0,
			"children": [1]
		}
	]
}