{
  "parent": "minecraft:block/cube_bottom_top",
  "textures": {
    "bottom": "autoworkstations:block/gold_auto_grindstone/auto_grindstone_bottom",
    "side": "autoworkstations:block/gold_auto_grindstone/auto_grindstone_on",
    "top": "autoworkstations:block/gold_auto_grindstone/auto_grindstone_top"
  }
}