{
	"credit": "Made with Blockbench",
	"textures": {
		"2": "autoworkstations:block/gold_auto_anvil_bottom",
		"3": "autoworkstations:block/gold_auto_anvil_second_side",
		"4": "autoworkstations:block/gold_auto_anvil_top",
		"5": "autoworkstations:block/gold_auto_anvil_side",
		"particle": "autoworkstations:block/gold_auto_anvil_bottom"
	},
	"elements": [
		{
			"name": "bottom",
			"from": [0, 0, 0],
			"to": [16, 1, 16],
			"faces": {
				"north": {"uv": [0, 15, 16, 16], "texture": "#2"},
				"east": {"uv": [0, 15, 16, 16], "texture": "#2"},
				"south": {"uv": [0, 15, 16, 16], "texture": "#2"},
				"west": {"uv": [0, 15, 16, 16], "texture": "#2"},
				"up": {"uv": [0, 0, 16, 16], "texture": "#2"},
				"down": {"uv": [0, 0, 16, 16], "rotation": 270, "texture": "#2"}
			}
		},
		{
			"from": [0.2, 14, 7],
			"to": [2.2, 15, 9],
			"faces": {
				"north": {"uv": [0, 0, 1, 1], "texture": "#2"},
				"east": {"uv": [0, 0, 1, 1], "texture": "#2"},
				"south": {"uv": [0, 0, 1, 1], "texture": "#2"},
				"west": {"uv": [0, 0, 1, 1], "texture": "#2"},
				"up": {"uv": [0, 0, 1, 1], "texture": "#2"},
				"down": {"uv": [0, 0, 1, 1], "texture": "#2"}
			}
		},
		{
			"from": [0.2, 10, 6.5],
			"to": [3.2, 14, 9.5],
			"faces": {
				"north": {"uv": [0, 0, 3, 4], "texture": "#2"},
				"east": {"uv": [0, 0, 3, 4], "texture": "#2"},
				"south": {"uv": [0, 0, 3, 4], "texture": "#2"},
				"west": {"uv": [0, 0, 3, 4], "texture": "#2"},
				"up": {"uv": [0, 0, 3, 3], "rotation": 270, "texture": "#2"},
				"down": {"uv": [0, 0, 3, 3], "rotation": 90, "texture": "#2"}
			}
		},
		{
			"name": "bottom-hald",
			"from": [15, 1, 0],
			"to": [16, 9, 16],
			"faces": {
				"north": {"uv": [0, 8, 1, 16], "texture": "#5"},
				"east": {"uv": [0, 8, 16, 16], "texture": "#5"},
				"south": {"uv": [15, 8, 16, 16], "texture": "#5"},
				"west": {"uv": [0, 8, 16, 16], "texture": "#5"},
				"up": {"uv": [0, 7, 16, 8], "rotation": 90, "texture": "#5"}
			}
		},
		{
			"from": [15, 9, 0],
			"to": [16, 15, 1],
			"faces": {
				"north": {"uv": [15, 1, 16, 7], "texture": "#5"},
				"east": {"uv": [0, 1, 1, 7], "texture": "#5"},
				"south": {"uv": [15, 1, 16, 7], "texture": "#5"},
				"west": {"uv": [0, 1, 1, 7], "texture": "#5"},
				"up": {"uv": [0, 0, 1, 1], "texture": "#4"}
			}
		},
		{
			"from": [15, 9, 15],
			"to": [16, 15, 16],
			"faces": {
				"north": {"uv": [15, 1, 16, 7], "texture": "#5"},
				"east": {"uv": [0, 1, 1, 7], "texture": "#5"},
				"south": {"uv": [15, 1, 16, 7], "texture": "#5"},
				"west": {"uv": [0, 1, 1, 7], "texture": "#5"},
				"up": {"uv": [0, 0, 1, 1], "texture": "#4"}
			}
		},
		{
			"from": [15, 9, 3],
			"to": [16, 15, 5],
			"faces": {
				"north": {"uv": [15, 1, 16, 7], "texture": "#5"},
				"east": {"uv": [11, 1, 13, 7], "texture": "#5"},
				"south": {"uv": [15, 1, 16, 7], "texture": "#5"},
				"west": {"uv": [3, 1, 5, 7], "texture": "#5"},
				"up": {"uv": [0, 0, 1, 1], "texture": "#4"}
			}
		},
		{
			"from": [15, 9, 11],
			"to": [16, 15, 13],
			"faces": {
				"north": {"uv": [15, 1, 16, 7], "texture": "#5"},
				"east": {"uv": [11, 1, 13, 7], "texture": "#5"},
				"south": {"uv": [15, 1, 16, 7], "texture": "#5"},
				"west": {"uv": [3, 1, 5, 7], "texture": "#5"},
				"up": {"uv": [0, 0, 1, 1], "texture": "#4"}
			}
		},
		{
			"name": "bottom-hald",
			"from": [0, 1, 0],
			"to": [1, 9, 16],
			"faces": {
				"north": {"uv": [0, 8, 1, 16], "texture": "#5"},
				"east": {"uv": [0, 8, 16, 16], "texture": "#5"},
				"south": {"uv": [15, 8, 16, 16], "texture": "#5"},
				"west": {"uv": [0, 8, 16, 16], "texture": "#5"},
				"up": {"uv": [0, 7, 16, 8], "rotation": 90, "texture": "#5"}
			}
		},
		{
			"from": [0, 9, 0],
			"to": [1, 15, 1],
			"faces": {
				"north": {"uv": [15, 1, 16, 7], "texture": "#5"},
				"east": {"uv": [0, 1, 1, 7], "texture": "#5"},
				"south": {"uv": [15, 1, 16, 7], "texture": "#5"},
				"west": {"uv": [0, 1, 1, 7], "texture": "#5"},
				"up": {"uv": [0, 0, 1, 1], "texture": "#4"}
			}
		},
		{
			"from": [0, 9, 15],
			"to": [1, 15, 16],
			"faces": {
				"north": {"uv": [15, 1, 16, 7], "texture": "#5"},
				"east": {"uv": [0, 1, 1, 7], "texture": "#5"},
				"south": {"uv": [15, 1, 16, 7], "texture": "#5"},
				"west": {"uv": [0, 1, 1, 7], "texture": "#5"},
				"up": {"uv": [0, 0, 1, 1], "texture": "#4"}
			}
		},
		{
			"from": [0, 9, 3],
			"to": [1, 15, 13],
			"faces": {
				"north": {"uv": [15, 1, 16, 7], "texture": "#5"},
				"east": {"uv": [3, 1, 13, 7], "texture": "#3"},
				"south": {"uv": [15, 1, 16, 7], "texture": "#5"},
				"west": {"uv": [3, 1, 13, 7], "texture": "#3"},
				"up": {"uv": [0, 0, 1, 1], "texture": "#4"}
			}
		},
		{
			"name": "bottom-hald",
			"from": [1, 1, 0],
			"to": [15, 9, 1],
			"faces": {
				"north": {"uv": [1, 8, 15, 16], "texture": "#5"},
				"east": {"uv": [15, 8, 16, 16], "texture": "#5"},
				"south": {"uv": [1, 8, 15, 16], "texture": "#5"},
				"west": {"uv": [0, 8, 1, 16], "texture": "#5"},
				"up": {"uv": [0, 7, 16, 8], "texture": "#5"}
			}
		},
		{
			"from": [3, 9, 0],
			"to": [5, 15, 1],
			"faces": {
				"north": {"uv": [11, 1, 13, 7], "texture": "#5"},
				"east": {"uv": [15, 1, 16, 7], "texture": "#5"},
				"south": {"uv": [3, 1, 5, 7], "texture": "#5"},
				"west": {"uv": [15, 1, 16, 7], "texture": "#5"},
				"up": {"uv": [0, 0, 1, 1], "rotation": 270, "texture": "#4"}
			}
		},
		{
			"from": [11, 9, 0],
			"to": [13, 15, 1],
			"faces": {
				"north": {"uv": [11, 1, 13, 7], "texture": "#5"},
				"east": {"uv": [15, 1, 16, 7], "texture": "#5"},
				"south": {"uv": [3, 1, 5, 7], "texture": "#5"},
				"west": {"uv": [15, 1, 16, 7], "texture": "#5"},
				"up": {"uv": [0, 0, 1, 1], "rotation": 270, "texture": "#4"}
			}
		},
		{
			"name": "bottom-hald",
			"from": [1, 1, 15],
			"to": [15, 9, 16],
			"faces": {
				"north": {"uv": [1, 8, 15, 16], "texture": "#5"},
				"east": {"uv": [15, 8, 16, 16], "texture": "#5"},
				"south": {"uv": [1, 8, 15, 16], "texture": "#5"},
				"west": {"uv": [0, 8, 1, 16], "texture": "#5"},
				"up": {"uv": [0, 7, 16, 8], "texture": "#5"}
			}
		},
		{
			"from": [3, 9, 15],
			"to": [5, 15, 16],
			"faces": {
				"north": {"uv": [11, 1, 13, 7], "texture": "#5"},
				"east": {"uv": [15, 1, 16, 7], "texture": "#5"},
				"south": {"uv": [3, 1, 5, 7], "texture": "#5"},
				"west": {"uv": [15, 1, 16, 7], "texture": "#5"},
				"up": {"uv": [0, 0, 1, 1], "rotation": 270, "texture": "#4"}
			}
		},
		{
			"from": [11, 9, 15],
			"to": [13, 15, 16],
			"faces": {
				"north": {"uv": [11, 1, 13, 7], "texture": "#5"},
				"east": {"uv": [15, 1, 16, 7], "texture": "#5"},
				"south": {"uv": [3, 1, 5, 7], "texture": "#5"},
				"west": {"uv": [15, 1, 16, 7], "texture": "#5"},
				"up": {"uv": [0, 0, 1, 1], "rotation": 270, "texture": "#4"}
			}
		},
		{
			"from": [0, 15, 0],
			"to": [16, 16, 2],
			"faces": {
				"north": {"uv": [0, 0, 16, 1], "texture": "#4"},
				"east": {"uv": [0, 0, 2, 1], "texture": "#4"},
				"south": {"uv": [0, 0, 16, 1], "texture": "#4"},
				"west": {"uv": [0, 0, 2, 1], "texture": "#4"},
				"up": {"uv": [0, 0, 16, 2], "texture": "#4"},
				"down": {"uv": [0, 14, 16, 16], "texture": "#4"}
			}
		},
		{
			"from": [0, 15, 2],
			"to": [2, 16, 14],
			"faces": {
				"north": {"uv": [0, 0, 2, 1], "texture": "#4"},
				"east": {"uv": [0, 0, 16, 1], "texture": "#4"},
				"south": {"uv": [0, 0, 2, 1], "texture": "#4"},
				"west": {"uv": [0, 0, 16, 1], "texture": "#4"},
				"up": {"uv": [14, 2, 16, 14], "rotation": 180, "texture": "#4"},
				"down": {"uv": [0, 2, 2, 14], "texture": "#4"}
			}
		},
		{
			"from": [14, 15, 2],
			"to": [16, 16, 14],
			"faces": {
				"north": {"uv": [0, 0, 2, 1], "texture": "#4"},
				"east": {"uv": [0, 0, 16, 1], "texture": "#4"},
				"south": {"uv": [0, 0, 2, 1], "texture": "#4"},
				"west": {"uv": [0, 0, 16, 1], "texture": "#4"},
				"up": {"uv": [0, 2, 2, 14], "rotation": 180, "texture": "#4"},
				"down": {"uv": [14, 2, 16, 14], "texture": "#4"}
			}
		},
		{
			"from": [0, 15, 14],
			"to": [16, 16, 16],
			"faces": {
				"north": {"uv": [0, 0, 16, 1], "texture": "#4"},
				"east": {"uv": [0, 0, 2, 1], "texture": "#4"},
				"south": {"uv": [0, 0, 16, 1], "texture": "#4"},
				"west": {"uv": [0, 0, 2, 1], "texture": "#4"},
				"up": {"uv": [0, 14, 16, 16], "texture": "#4"},
				"down": {"uv": [0, 0, 16, 2], "texture": "#4"}
			}
		}
	],
	"display": {
		"thirdperson_righthand": {
			"scale": [0.4, 0.4, 0.4]
		},
		"thirdperson_lefthand": {
			"scale": [0.4, 0.4, 0.4]
		},
		"firstperson_righthand": {
			"scale": [0.4, 0.4, 0.4]
		},
		"firstperson_lefthand": {
			"scale": [0.4, 0.4, 0.4]
		},
		"ground": {
			"scale": [0.4, 0.4, 0.4]
		},
		"fixed": {
			"scale": [0.5, 0.5, 0.5]
		}
	},
	"groups": [
		0,
		{
			"name": "hammer-hold",
			"origin": [0, 0, 0],
			"color": 0,
			"children": [1, 2]
		},
		{
			"name": "front",
			"origin": [0, 0, 0],
			"color": 0,
			"children": [3, 4, 5, 6, 7]
		},
		{
			"name": "back",
			"origin": [0, 0, 0],
			"color": 0,
			"children": [8, 9, 10, 11]
		},
		{
			"name": "side",
			"origin": [0, 0, 0],
			"color": 0,
			"children": [12, 13, 14]
		},
		{
			"name": "side",
			"origin": [0, 0, 0],
			"color": 0,
			"children": [15, 16, 17]
		},
		{
			"name": "top",
			"origin": [0, 0, 0],
			"color": 0,
			"children": [18, 19, 20, 21]
		}
	]
}