{
	"credit": "Made with Blockbench",
	"textures": {
		"0": "autoworkstations:block/gold_auto_enchanting_table_bottom",
		"2": "autoworkstations:block/gold_auto_enchanting_table_top",
		"6": "autoworkstations:block/gold_auto_enchanting_table_bottom",
		"7": "autoworkstations:block/gold_auto_enchanting_table_side",
		"particle": "autoworkstations:block/gold_auto_enchanting_table_bottom"
	},
	"elements": [
		{
			"from": [0, 0, 0],
			"to": [16, 12, 16],
			"faces": {
				"north": {"uv": [0, 4, 16, 16], "texture": "#7"},
				"east": {"uv": [0, 4, 16, 16], "texture": "#7"},
				"south": {"uv": [0, 4, 16, 16], "texture": "#7"},
				"west": {"uv": [0, 4, 16, 16], "texture": "#7"},
				"up": {"uv": [0, 0, 16, 16], "texture": "#0"},
				"down": {"uv": [0, 0, 16, 16], "texture": "#6"}
			}
		},
		{
			"from": [0, 12, 0],
			"to": [16, 16, 16],
			"faces": {
				"north": {"uv": [0, 0, 16, 4], "texture": "#7"},
				"east": {"uv": [0, 0, 16, 4], "texture": "#7"},
				"south": {"uv": [0, 0, 16, 4], "texture": "#7"},
				"west": {"uv": [0, 0, 16, 4], "texture": "#7"},
				"up": {"uv": [0, 0, 16, 16], "texture": "#2"},
				"down": {"uv": [0, 0, 16, 16], "texture": "#2"}
			}
		}
	],
	"display": {
		"thirdperson_righthand": {
			"scale": [0.4, 0.4, 0.4]
		},
		"thirdperson_lefthand": {
			"scale": [0.4, 0.4, 0.4]
		},
		"firstperson_righthand": {
			"scale": [0.4, 0.4, 0.4]
		},
		"firstperson_lefthand": {
			"scale": [0.4, 0.4, 0.4]
		},
		"ground": {
			"scale": [0.4, 0.4, 0.4]
		},
		"fixed": {
			"scale": [0.5, 0.5, 0.5]
		}
	},
	"groups": [
		{
			"name": "bone",
			"origin": [0, 0, 0],
			"color": 0,
			"children": [0, 1]
		}
	]
}
