{
	"credit": "Made with Blockbench",
	"textures": {
		"0": "autoworkstations:block/iron_auto_crafting_table_top",
		"1": "autoworkstations:block/iron_auto_crafting_table_side",
		"2": "autoworkstations:block/iron_auto_crafting_table_bottom",
		"particle": "autoworkstations:block/iron_auto_crafting_table_top"
	},
	"elements": [
		{
			"from": [0, 4, 0],
			"to": [16, 11, 16],
			"faces": {
				"north": {"uv": [0, 0, 16, 7], "texture": "#1"},
				"east": {"uv": [0, 0, 16, 7], "texture": "#1"},
				"south": {"uv": [0, 0, 16, 7], "texture": "#1"},
				"west": {"uv": [0, 0, 16, 7], "texture": "#1"},
				"up": {"uv": [16, 16, 0, 0], "texture": "#0"},
				"down": {"uv": [8, 0, 0, 8], "texture": "#2"}
			}
		},
		{
			"name": "middle",
			"from": [0, 1, 0],
			"to": [7, 4, 7],
			"faces": {
				"north": {"uv": [9, 8, 16, 11], "texture": "#1"},
				"east": {"uv": [0, 8, 7, 11], "texture": "#1"},
				"south": {"uv": [9, 8, 16, 11], "texture": "#1"},
				"west": {"uv": [0, 8, 7, 11], "texture": "#1"},
				"up": {"uv": [0, 0, 7, 7], "texture": "#0"},
				"down": {"uv": [1, 0, 8, 7], "texture": "#2"}
			}
		},
		{
			"name": "bottom",
			"from": [0, 0, 0],
			"to": [6, 1, 6],
			"faces": {
				"north": {"uv": [10, 11, 16, 12], "texture": "#1"},
				"east": {"uv": [0, 11, 6, 12], "texture": "#1"},
				"south": {"uv": [10, 11, 16, 12], "texture": "#1"},
				"west": {"uv": [0, 11, 6, 12], "texture": "#1"},
				"up": {"uv": [0, 0, 6, 6], "texture": "#0"},
				"down": {"uv": [10, 9, 16, 15], "rotation": 180, "texture": "#2"}
			}
		},
		{
			"name": "middle",
			"from": [0, 1, 9],
			"to": [7, 4, 16],
			"faces": {
				"north": {"uv": [0, 8, 7, 11], "texture": "#1"},
				"east": {"uv": [9, 8, 16, 11], "texture": "#1"},
				"south": {"uv": [0, 8, 7, 11], "texture": "#1"},
				"west": {"uv": [9, 8, 16, 11], "texture": "#1"},
				"up": {"uv": [0, 0, 7, 7], "rotation": 270, "texture": "#0"},
				"down": {"uv": [1, 0, 8, 7], "rotation": 90, "texture": "#2"}
			}
		},
		{
			"name": "bottom",
			"from": [0, 0, 10],
			"to": [6, 1, 16],
			"faces": {
				"north": {"uv": [0, 11, 6, 12], "texture": "#1"},
				"east": {"uv": [10, 11, 16, 12], "texture": "#1"},
				"south": {"uv": [0, 11, 6, 12], "texture": "#1"},
				"west": {"uv": [10, 11, 16, 12], "texture": "#1"},
				"up": {"uv": [0, 0, 6, 6], "rotation": 270, "texture": "#0"},
				"down": {"uv": [10, 9, 16, 15], "rotation": 270, "texture": "#2"}
			}
		},
		{
			"name": "middle",
			"from": [9, 1, 9],
			"to": [16, 4, 16],
			"faces": {
				"north": {"uv": [9, 8, 16, 11], "texture": "#1"},
				"east": {"uv": [0, 8, 7, 11], "texture": "#1"},
				"south": {"uv": [9, 8, 16, 11], "texture": "#1"},
				"west": {"uv": [0, 8, 7, 11], "texture": "#1"},
				"up": {"uv": [0, 0, 7, 7], "rotation": 180, "texture": "#0"},
				"down": {"uv": [1, 0, 8, 7], "rotation": 180, "texture": "#2"}
			}
		},
		{
			"name": "bottom",
			"from": [10, 0, 10],
			"to": [16, 1, 16],
			"faces": {
				"north": {"uv": [10, 11, 16, 12], "texture": "#1"},
				"east": {"uv": [0, 11, 6, 12], "texture": "#1"},
				"south": {"uv": [10, 11, 16, 12], "texture": "#1"},
				"west": {"uv": [0, 11, 6, 12], "texture": "#1"},
				"up": {"uv": [0, 0, 6, 6], "rotation": 180, "texture": "#0"},
				"down": {"uv": [10, 9, 16, 15], "texture": "#2"}
			}
		},
		{
			"name": "middle",
			"from": [9, 1, 0],
			"to": [16, 4, 7],
			"faces": {
				"north": {"uv": [0, 8, 7, 11], "texture": "#1"},
				"east": {"uv": [9, 8, 16, 11], "texture": "#1"},
				"south": {"uv": [0, 8, 7, 11], "texture": "#1"},
				"west": {"uv": [9, 8, 16, 11], "texture": "#1"},
				"up": {"uv": [0, 0, 7, 7], "rotation": 90, "texture": "#0"},
				"down": {"uv": [1, 0, 8, 7], "rotation": 270, "texture": "#2"}
			}
		},
		{
			"name": "bottom",
			"from": [10, 0, 0],
			"to": [16, 1, 6],
			"faces": {
				"north": {"uv": [0, 11, 6, 12], "texture": "#1"},
				"east": {"uv": [10, 11, 16, 12], "texture": "#1"},
				"south": {"uv": [0, 11, 6, 12], "texture": "#1"},
				"west": {"uv": [10, 11, 16, 12], "texture": "#1"},
				"up": {"uv": [0, 0, 6, 6], "rotation": 90, "texture": "#0"},
				"down": {"uv": [10, 9, 16, 15], "rotation": 90, "texture": "#2"}
			}
		},
		{
			"from": [0, 11, 0],
			"to": [1, 16, 1],
			"faces": {
				"north": {"uv": [11, 3, 12, 8], "texture": "#1"},
				"east": {"uv": [4, 3, 5, 8], "texture": "#1"},
				"south": {"uv": [11, 3, 12, 8], "texture": "#1"},
				"west": {"uv": [4, 3, 5, 8], "texture": "#1"},
				"up": {"uv": [10, 11, 11, 12], "texture": "#2"},
				"down": {"uv": [10, 11, 11, 12], "texture": "#2"}
			}
		},
		{
			"from": [15, 11, 0],
			"to": [16, 16, 1],
			"faces": {
				"north": {"uv": [11, 3, 12, 8], "texture": "#1"},
				"east": {"uv": [4, 3, 5, 8], "texture": "#1"},
				"south": {"uv": [11, 3, 12, 8], "texture": "#1"},
				"west": {"uv": [4, 3, 5, 8], "texture": "#1"},
				"up": {"uv": [10, 11, 11, 12], "texture": "#2"},
				"down": {"uv": [10, 11, 11, 12], "texture": "#2"}
			}
		},
		{
			"from": [15, 11, 15],
			"to": [16, 16, 16],
			"faces": {
				"north": {"uv": [11, 3, 12, 8], "texture": "#1"},
				"east": {"uv": [4, 3, 5, 8], "texture": "#1"},
				"south": {"uv": [11, 3, 12, 8], "texture": "#1"},
				"west": {"uv": [4, 3, 5, 8], "texture": "#1"},
				"up": {"uv": [10, 11, 11, 12], "texture": "#2"},
				"down": {"uv": [10, 11, 11, 12], "texture": "#2"}
			}
		},
		{
			"from": [0, 11, 15],
			"to": [1, 16, 16],
			"faces": {
				"north": {"uv": [11, 3, 12, 8], "texture": "#1"},
				"east": {"uv": [4, 3, 5, 8], "texture": "#1"},
				"south": {"uv": [11, 3, 12, 8], "texture": "#1"},
				"west": {"uv": [4, 3, 5, 8], "texture": "#1"},
				"up": {"uv": [10, 11, 11, 12], "texture": "#2"},
				"down": {"uv": [10, 11, 11, 12], "texture": "#2"}
			}
		},
		{
			"from": [0, 15, 1],
			"to": [1, 16, 15],
			"faces": {
				"north": {"uv": [0, 0, 1, 1], "texture": "#0"},
				"east": {"uv": [2, 0, 16, 1], "texture": "#0"},
				"south": {"uv": [0, 0, 1, 1], "texture": "#0"},
				"west": {"uv": [2, 0, 16, 1], "texture": "#0"},
				"up": {"uv": [2, 0, 16, 1], "rotation": 90, "texture": "#0"},
				"down": {"uv": [2, 0, 16, 1], "rotation": 90, "texture": "#0"}
			}
		},
		{
			"from": [15, 15, 1],
			"to": [16, 16, 15],
			"faces": {
				"north": {"uv": [0, 0, 1, 1], "texture": "#0"},
				"east": {"uv": [2, 0, 16, 1], "texture": "#0"},
				"south": {"uv": [0, 0, 1, 1], "texture": "#0"},
				"west": {"uv": [2, 0, 16, 1], "texture": "#0"},
				"up": {"uv": [2, 0, 16, 1], "rotation": 90, "texture": "#0"},
				"down": {"uv": [2, 0, 16, 1], "rotation": 90, "texture": "#0"}
			}
		},
		{
			"from": [1, 15, 0],
			"to": [15, 16, 1],
			"faces": {
				"north": {"uv": [0, 0, 14, 1], "texture": "#0"},
				"east": {"uv": [0, 0, 1, 1], "texture": "#0"},
				"south": {"uv": [0, 0, 14, 1], "texture": "#0"},
				"west": {"uv": [0, 0, 1, 1], "texture": "#0"},
				"up": {"uv": [0, 0, 14, 1], "texture": "#0"},
				"down": {"uv": [0, 0, 14, 1], "rotation": 180, "texture": "#0"}
			}
		},
		{
			"from": [1, 15, 15],
			"to": [15, 16, 16],
			"faces": {
				"north": {"uv": [0, 0, 14, 1], "texture": "#0"},
				"east": {"uv": [0, 0, 1, 1], "texture": "#0"},
				"south": {"uv": [0, 0, 14, 1], "texture": "#0"},
				"west": {"uv": [0, 0, 1, 1], "texture": "#0"},
				"up": {"uv": [0, 0, 14, 1], "texture": "#0"},
				"down": {"uv": [0, 0, 14, 1], "rotation": 180, "texture": "#0"}
			}
		}
	],
	"display": {
		"thirdperson_righthand": {
			"scale": [0.4, 0.4, 0.4]
		},
		"thirdperson_lefthand": {
			"scale": [0.4, 0.4, 0.4]
		},
		"firstperson_righthand": {
			"scale": [0.4, 0.4, 0.4]
		},
		"firstperson_lefthand": {
			"scale": [0.4, 0.4, 0.4]
		},
		"ground": {
			"scale": [0.4, 0.4, 0.4]
		},
		"fixed": {
			"scale": [0.5, 0.5, 0.5]
		}
	},
	"groups": [
		{
			"name": "group",
			"origin": [0, 0, 0],
			"color": 0,
			"children": [
				0,
				{
					"name": "leg",
					"origin": [0, 0, 0],
					"color": 0,
					"children": [1, 2]
				},
				{
					"name": "leg",
					"origin": [0, 0, 0],
					"color": 0,
					"children": [3, 4]
				},
				{
					"name": "leg",
					"origin": [0, 0, 0],
					"color": 0,
					"children": [5, 6]
				},
				{
					"name": "leg",
					"origin": [0, 0, 0],
					"color": 0,
					"children": [7, 8]
				},
				{
					"name": "top frame",
					"origin": [0, 0, 0],
					"color": 0,
					"children": [9, 10, 11, 12, 13, 14, 15, 16]
				}
			]
		}
	]
}